%YAML 1.1
%TAG !u! tag:unity3d.com,2011:
--- !u!1001 &2707908339472050994
PrefabInstance:
  m_ObjectHideFlags: 0
  serializedVersion: 2
  m_Modification:
    m_TransformParent: {fileID: 0}
    m_Modifications:
    - target: {fileID: 1254717259330337178, guid: ae05065d63e0b26468840381648c7a7a, type: 3}
      propertyPath: m_LocalPosition.x
      value: -0.99999994
      objectReference: {fileID: 0}
    - target: {fileID: 1254717259330337178, guid: ae05065d63e0b26468840381648c7a7a, type: 3}
      propertyPath: m_LocalPosition.z
      value: 0.0000029206276
      objectReference: {fileID: 0}
    - target: {fileID: 3522960182625240663, guid: ae05065d63e0b26468840381648c7a7a, type: 3}
      propertyPath: m_LocalPosition.x
      value: -0.53
      objectReference: {fileID: 0}
    - target: {fileID: 3522960182625240663, guid: ae05065d63e0b26468840381648c7a7a, type: 3}
      propertyPath: m_LocalPosition.z
      value: 0.5000029
      objectReference: {fileID: 0}
    - target: {fileID: 6216504361642063411, guid: ae05065d63e0b26468840381648c7a7a, type: 3}
      propertyPath: sizeX
      value: 3
      objectReference: {fileID: 0}
    - target: {fileID: 6216504361642063411, guid: ae05065d63e0b26468840381648c7a7a, type: 3}
      propertyPath: sizeY
      value: 2
      objectReference: {fileID: 0}
    - target: {fileID: 6937093365849035514, guid: ae05065d63e0b26468840381648c7a7a, type: 3}
      propertyPath: m_Name
      value: building_house13_west
      objectReference: {fileID: 0}
    - target: {fileID: 6937093365849035514, guid: ae05065d63e0b26468840381648c7a7a, type: 3}
      propertyPath: m_IsActive
      value: 1
      objectReference: {fileID: 0}
    - target: {fileID: 7515689294787530850, guid: ae05065d63e0b26468840381648c7a7a, type: 3}
      propertyPath: m_LocalPosition.x
      value: -0.99999994
      objectReference: {fileID: 0}
    - target: {fileID: 7515689294787530850, guid: ae05065d63e0b26468840381648c7a7a, type: 3}
      propertyPath: m_LocalPosition.z
      value: 0.0000029206276
      objectReference: {fileID: 0}
    - target: {fileID: 8166516168303217182, guid: ae05065d63e0b26468840381648c7a7a, type: 3}
      propertyPath: m_LocalPosition.x
      value: -0.99999994
      objectReference: {fileID: 0}
    - target: {fileID: 8166516168303217182, guid: ae05065d63e0b26468840381648c7a7a, type: 3}
      propertyPath: m_LocalPosition.z
      value: 0.0000029206276
      objectReference: {fileID: 0}
    - target: {fileID: 8604014702862984930, guid: ae05065d63e0b26468840381648c7a7a, type: 3}
      propertyPath: m_RootOrder
      value: 0
      objectReference: {fileID: 0}
    - target: {fileID: 8604014702862984930, guid: ae05065d63e0b26468840381648c7a7a, type: 3}
      propertyPath: m_LocalPosition.x
      value: 0
      objectReference: {fileID: 0}
    - target: {fileID: 8604014702862984930, guid: ae05065d63e0b26468840381648c7a7a, type: 3}
      propertyPath: m_LocalPosition.y
      value: 0
      objectReference: {fileID: 0}
    - target: {fileID: 8604014702862984930, guid: ae05065d63e0b26468840381648c7a7a, type: 3}
      propertyPath: m_LocalPosition.z
      value: 0
      objectReference: {fileID: 0}
    - target: {fileID: 8604014702862984930, guid: ae05065d63e0b26468840381648c7a7a, type: 3}
      propertyPath: m_LocalRotation.w
      value: 0.70710784
      objectReference: {fileID: 0}
    - target: {fileID: 8604014702862984930, guid: ae05065d63e0b26468840381648c7a7a, type: 3}
      propertyPath: m_LocalRotation.x
      value: -0
      objectReference: {fileID: 0}
    - target: {fileID: 8604014702862984930, guid: ae05065d63e0b26468840381648c7a7a, type: 3}
      propertyPath: m_LocalRotation.y
      value: 0.70710576
      objectReference: {fileID: 0}
    - target: {fileID: 8604014702862984930, guid: ae05065d63e0b26468840381648c7a7a, type: 3}
      propertyPath: m_LocalRotation.z
      value: -0
      objectReference: {fileID: 0}
    - target: {fileID: 8604014702862984930, guid: ae05065d63e0b26468840381648c7a7a, type: 3}
      propertyPath: m_LocalEulerAnglesHint.x
      value: 0
      objectReference: {fileID: 0}
    - target: {fileID: 8604014702862984930, guid: ae05065d63e0b26468840381648c7a7a, type: 3}
      propertyPath: m_LocalEulerAnglesHint.y
      value: 90
      objectReference: {fileID: 0}
    - target: {fileID: 8604014702862984930, guid: ae05065d63e0b26468840381648c7a7a, type: 3}
      propertyPath: m_LocalEulerAnglesHint.z
      value: 0
      objectReference: {fileID: 0}
    m_RemovedComponents: []
  m_SourcePrefab: {fileID: 100100000, guid: ae05065d63e0b26468840381648c7a7a, type: 3}
