%YAML 1.1
%TAG !u! tag:unity3d.com,2011:
--- !u!1001 &783989789048502008
PrefabInstance:
  m_ObjectHideFlags: 0
  serializedVersion: 2
  m_Modification:
    m_TransformParent: {fileID: 0}
    m_Modifications:
    - target: {fileID: 3280257978090240796, guid: d7cc57980a47b5b4faabee0a5ef94a86, type: 3}
      propertyPath: m_RootOrder
      value: 0
      objectReference: {fileID: 0}
    - target: {fileID: 3280257978090240796, guid: d7cc57980a47b5b4faabee0a5ef94a86, type: 3}
      propertyPath: m_LocalRotation.w
      value: 0.70710784
      objectReference: {fileID: 0}
    - target: {fileID: 3280257978090240796, guid: d7cc57980a47b5b4faabee0a5ef94a86, type: 3}
      propertyPath: m_LocalRotation.x
      value: -0
      objectReference: {fileID: 0}
    - target: {fileID: 3280257978090240796, guid: d7cc57980a47b5b4faabee0a5ef94a86, type: 3}
      propertyPath: m_LocalRotation.y
      value: -0.70710576
      objectReference: {fileID: 0}
    - target: {fileID: 3280257978090240796, guid: d7cc57980a47b5b4faabee0a5ef94a86, type: 3}
      propertyPath: m_LocalRotation.z
      value: -0
      objectReference: {fileID: 0}
    - target: {fileID: 3280257978090240796, guid: d7cc57980a47b5b4faabee0a5ef94a86, type: 3}
      propertyPath: m_LocalEulerAnglesHint.x
      value: 0
      objectReference: {fileID: 0}
    - target: {fileID: 3280257978090240796, guid: d7cc57980a47b5b4faabee0a5ef94a86, type: 3}
      propertyPath: m_LocalEulerAnglesHint.y
      value: -90
      objectReference: {fileID: 0}
    - target: {fileID: 3280257978090240796, guid: d7cc57980a47b5b4faabee0a5ef94a86, type: 3}
      propertyPath: m_LocalEulerAnglesHint.z
      value: 0
      objectReference: {fileID: 0}
    - target: {fileID: 3669837968112364043, guid: d7cc57980a47b5b4faabee0a5ef94a86, type: 3}
      propertyPath: m_LocalPosition.x
      value: 0.0000029206276
      objectReference: {fileID: 0}
    - target: {fileID: 3669837968112364043, guid: d7cc57980a47b5b4faabee0a5ef94a86, type: 3}
      propertyPath: m_LocalPosition.z
      value: -1
      objectReference: {fileID: 0}
    - target: {fileID: 4321610520448568611, guid: d7cc57980a47b5b4faabee0a5ef94a86, type: 3}
      propertyPath: m_Name
      value: building_largeE_east
      objectReference: {fileID: 0}
    - target: {fileID: 5687481575694267040, guid: d7cc57980a47b5b4faabee0a5ef94a86, type: 3}
      propertyPath: m_LocalPosition.x
      value: 0.5000029
      objectReference: {fileID: 0}
    - target: {fileID: 5687481575694267040, guid: d7cc57980a47b5b4faabee0a5ef94a86, type: 3}
      propertyPath: m_LocalPosition.z
      value: -0.5
      objectReference: {fileID: 0}
    m_RemovedComponents: []
  m_SourcePrefab: {fileID: 100100000, guid: d7cc57980a47b5b4faabee0a5ef94a86, type: 3}
