%YAML 1.1
%TAG !u! tag:unity3d.com,2011:
--- !u!1 &7343693384561247160
GameObject:
  m_ObjectHideFlags: 0
  m_CorrespondingSourceObject: {fileID: 0}
  m_PrefabInstance: {fileID: 0}
  m_PrefabAsset: {fileID: 0}
  serializedVersion: 6
  m_Component:
  - component: {fileID: 1070823370815632518}
  m_Layer: 0
  m_Name: addons_fenceopen
  m_TagString: Untagged
  m_Icon: {fileID: 0}
  m_NavMeshLayer: 0
  m_StaticEditorFlags: 4294967295
  m_IsActive: 1
--- !u!4 &1070823370815632518
Transform:
  m_ObjectHideFlags: 0
  m_CorrespondingSourceObject: {fileID: 0}
  m_PrefabInstance: {fileID: 0}
  m_PrefabAsset: {fileID: 0}
  m_GameObject: {fileID: 7343693384561247160}
  m_LocalRotation: {x: 0, y: 0, z: 0, w: 1}
  m_LocalPosition: {x: 0, y: 0, z: 0}
  m_LocalScale: {x: 1, y: 1, z: 1}
  m_Children:
  - {fileID: 2787589997201418359}
  m_Father: {fileID: 0}
  m_RootOrder: 0
  m_LocalEulerAnglesHint: {x: 0, y: 0, z: 0}
--- !u!1001 &2388380221249294236
PrefabInstance:
  m_ObjectHideFlags: 0
  serializedVersion: 2
  m_Modification:
    m_TransformParent: {fileID: 1070823370815632518}
    m_Modifications:
    - target: {fileID: -8679921383154817045, guid: 71c5cb0c44b6f694192b2f5eacaaaf07, type: 3}
      propertyPath: m_RootOrder
      value: 0
      objectReference: {fileID: 0}
    - target: {fileID: -8679921383154817045, guid: 71c5cb0c44b6f694192b2f5eacaaaf07, type: 3}
      propertyPath: m_LocalPosition.x
      value: 0
      objectReference: {fileID: 0}
    - target: {fileID: -8679921383154817045, guid: 71c5cb0c44b6f694192b2f5eacaaaf07, type: 3}
      propertyPath: m_LocalPosition.y
      value: 0
      objectReference: {fileID: 0}
    - target: {fileID: -8679921383154817045, guid: 71c5cb0c44b6f694192b2f5eacaaaf07, type: 3}
      propertyPath: m_LocalPosition.z
      value: 0
      objectReference: {fileID: 0}
    - target: {fileID: -8679921383154817045, guid: 71c5cb0c44b6f694192b2f5eacaaaf07, type: 3}
      propertyPath: m_LocalRotation.w
      value: 1
      objectReference: {fileID: 0}
    - target: {fileID: -8679921383154817045, guid: 71c5cb0c44b6f694192b2f5eacaaaf07, type: 3}
      propertyPath: m_LocalRotation.x
      value: -0
      objectReference: {fileID: 0}
    - target: {fileID: -8679921383154817045, guid: 71c5cb0c44b6f694192b2f5eacaaaf07, type: 3}
      propertyPath: m_LocalRotation.y
      value: -0
      objectReference: {fileID: 0}
    - target: {fileID: -8679921383154817045, guid: 71c5cb0c44b6f694192b2f5eacaaaf07, type: 3}
      propertyPath: m_LocalRotation.z
      value: -0
      objectReference: {fileID: 0}
    - target: {fileID: -8679921383154817045, guid: 71c5cb0c44b6f694192b2f5eacaaaf07, type: 3}
      propertyPath: m_LocalEulerAnglesHint.x
      value: 0
      objectReference: {fileID: 0}
    - target: {fileID: -8679921383154817045, guid: 71c5cb0c44b6f694192b2f5eacaaaf07, type: 3}
      propertyPath: m_LocalEulerAnglesHint.y
      value: 0
      objectReference: {fileID: 0}
    - target: {fileID: -8679921383154817045, guid: 71c5cb0c44b6f694192b2f5eacaaaf07, type: 3}
      propertyPath: m_LocalEulerAnglesHint.z
      value: 0
      objectReference: {fileID: 0}
    - target: {fileID: -7511558181221131132, guid: 71c5cb0c44b6f694192b2f5eacaaaf07, type: 3}
      propertyPath: m_Materials.Array.data[0]
      value: 
      objectReference: {fileID: 2100000, guid: 8d1c0d3681c04c841b3d7bef621e35ee, type: 2}
    - target: {fileID: 919132149155446097, guid: 71c5cb0c44b6f694192b2f5eacaaaf07, type: 3}
      propertyPath: m_Name
      value: fence_open
      objectReference: {fileID: 0}
    - target: {fileID: 919132149155446097, guid: 71c5cb0c44b6f694192b2f5eacaaaf07, type: 3}
      propertyPath: m_StaticEditorFlags
      value: 4294967295
      objectReference: {fileID: 0}
    m_RemovedComponents: []
  m_SourcePrefab: {fileID: 100100000, guid: 71c5cb0c44b6f694192b2f5eacaaaf07, type: 3}
--- !u!4 &2787589997201418359 stripped
Transform:
  m_CorrespondingSourceObject: {fileID: -8679921383154817045, guid: 71c5cb0c44b6f694192b2f5eacaaaf07, type: 3}
  m_PrefabInstance: {fileID: 2388380221249294236}
  m_PrefabAsset: {fileID: 0}
