%YAML 1.1
%TAG !u! tag:unity3d.com,2011:
--- !u!1 &8443601975264116662
GameObject:
  m_ObjectHideFlags: 0
  m_CorrespondingSourceObject: {fileID: 0}
  m_PrefabInstance: {fileID: 0}
  m_PrefabAsset: {fileID: 0}
  serializedVersion: 6
  m_Component:
  - component: {fileID: 2303950948034426151}
  m_Layer: 0
  m_Name: addons_fencelarge
  m_TagString: Untagged
  m_Icon: {fileID: 0}
  m_NavMeshLayer: 0
  m_StaticEditorFlags: 4294967295
  m_IsActive: 1
--- !u!4 &2303950948034426151
Transform:
  m_ObjectHideFlags: 0
  m_CorrespondingSourceObject: {fileID: 0}
  m_PrefabInstance: {fileID: 0}
  m_PrefabAsset: {fileID: 0}
  m_GameObject: {fileID: 8443601975264116662}
  m_LocalRotation: {x: 0, y: 0, z: 0, w: 1}
  m_LocalPosition: {x: 0, y: 0, z: 0}
  m_LocalScale: {x: 0.99, y: 1, z: 1}
  m_Children:
  - {fileID: 8647963985984883123}
  m_Father: {fileID: 0}
  m_RootOrder: 0
  m_LocalEulerAnglesHint: {x: 0, y: 0, z: 0}
--- !u!1001 &9189880982897782360
PrefabInstance:
  m_ObjectHideFlags: 0
  serializedVersion: 2
  m_Modification:
    m_TransformParent: {fileID: 2303950948034426151}
    m_Modifications:
    - target: {fileID: -8679921383154817045, guid: a6deee6867ec63149a9e63f08d389629, type: 3}
      propertyPath: m_RootOrder
      value: 0
      objectReference: {fileID: 0}
    - target: {fileID: -8679921383154817045, guid: a6deee6867ec63149a9e63f08d389629, type: 3}
      propertyPath: m_LocalPosition.x
      value: 0
      objectReference: {fileID: 0}
    - target: {fileID: -8679921383154817045, guid: a6deee6867ec63149a9e63f08d389629, type: 3}
      propertyPath: m_LocalPosition.y
      value: 0
      objectReference: {fileID: 0}
    - target: {fileID: -8679921383154817045, guid: a6deee6867ec63149a9e63f08d389629, type: 3}
      propertyPath: m_LocalPosition.z
      value: 0
      objectReference: {fileID: 0}
    - target: {fileID: -8679921383154817045, guid: a6deee6867ec63149a9e63f08d389629, type: 3}
      propertyPath: m_LocalRotation.w
      value: 1
      objectReference: {fileID: 0}
    - target: {fileID: -8679921383154817045, guid: a6deee6867ec63149a9e63f08d389629, type: 3}
      propertyPath: m_LocalRotation.x
      value: -0
      objectReference: {fileID: 0}
    - target: {fileID: -8679921383154817045, guid: a6deee6867ec63149a9e63f08d389629, type: 3}
      propertyPath: m_LocalRotation.y
      value: -0
      objectReference: {fileID: 0}
    - target: {fileID: -8679921383154817045, guid: a6deee6867ec63149a9e63f08d389629, type: 3}
      propertyPath: m_LocalRotation.z
      value: -0
      objectReference: {fileID: 0}
    - target: {fileID: -8679921383154817045, guid: a6deee6867ec63149a9e63f08d389629, type: 3}
      propertyPath: m_LocalEulerAnglesHint.x
      value: 0
      objectReference: {fileID: 0}
    - target: {fileID: -8679921383154817045, guid: a6deee6867ec63149a9e63f08d389629, type: 3}
      propertyPath: m_LocalEulerAnglesHint.y
      value: 0
      objectReference: {fileID: 0}
    - target: {fileID: -8679921383154817045, guid: a6deee6867ec63149a9e63f08d389629, type: 3}
      propertyPath: m_LocalEulerAnglesHint.z
      value: 0
      objectReference: {fileID: 0}
    - target: {fileID: -7511558181221131132, guid: a6deee6867ec63149a9e63f08d389629, type: 3}
      propertyPath: m_Materials.Array.data[0]
      value: 
      objectReference: {fileID: 2100000, guid: 8d1c0d3681c04c841b3d7bef621e35ee, type: 2}
    - target: {fileID: 919132149155446097, guid: a6deee6867ec63149a9e63f08d389629, type: 3}
      propertyPath: m_Name
      value: fence_large
      objectReference: {fileID: 0}
    - target: {fileID: 919132149155446097, guid: a6deee6867ec63149a9e63f08d389629, type: 3}
      propertyPath: m_StaticEditorFlags
      value: 4294967295
      objectReference: {fileID: 0}
    m_RemovedComponents: []
  m_SourcePrefab: {fileID: 100100000, guid: a6deee6867ec63149a9e63f08d389629, type: 3}
--- !u!4 &8647963985984883123 stripped
Transform:
  m_CorrespondingSourceObject: {fileID: -8679921383154817045, guid: a6deee6867ec63149a9e63f08d389629, type: 3}
  m_PrefabInstance: {fileID: 9189880982897782360}
  m_PrefabAsset: {fileID: 0}
