%YAML 1.1
%TAG !u! tag:unity3d.com,2011:
--- !u!1001 &6368535273296749732
PrefabInstance:
  m_ObjectHideFlags: 0
  serializedVersion: 2
  m_Modification:
    m_TransformParent: {fileID: 0}
    m_Modifications:
    - target: {fileID: 3795627161678830726, guid: 9480e25445462b742af5a6554794db96, type: 3}
      propertyPath: m_Name
      value: car_shape03_purple Variant
      objectReference: {fileID: 0}
    - target: {fileID: 5128611335876486149, guid: 9480e25445462b742af5a6554794db96, type: 3}
      propertyPath: m_RootOrder
      value: 0
      objectReference: {fileID: 0}
    - target: {fileID: 5128611335876486149, guid: 9480e25445462b742af5a6554794db96, type: 3}
      propertyPath: m_LocalPosition.x
      value: -1.5
      objectReference: {fileID: 0}
    - target: {fileID: 5128611335876486149, guid: 9480e25445462b742af5a6554794db96, type: 3}
      propertyPath: m_LocalPosition.y
      value: 0
      objectReference: {fileID: 0}
    - target: {fileID: 5128611335876486149, guid: 9480e25445462b742af5a6554794db96, type: 3}
      propertyPath: m_LocalPosition.z
      value: 0
      objectReference: {fileID: 0}
    - target: {fileID: 5128611335876486149, guid: 9480e25445462b742af5a6554794db96, type: 3}
      propertyPath: m_LocalRotation.w
      value: 1
      objectReference: {fileID: 0}
    - target: {fileID: 5128611335876486149, guid: 9480e25445462b742af5a6554794db96, type: 3}
      propertyPath: m_LocalRotation.x
      value: 0
      objectReference: {fileID: 0}
    - target: {fileID: 5128611335876486149, guid: 9480e25445462b742af5a6554794db96, type: 3}
      propertyPath: m_LocalRotation.y
      value: 0
      objectReference: {fileID: 0}
    - target: {fileID: 5128611335876486149, guid: 9480e25445462b742af5a6554794db96, type: 3}
      propertyPath: m_LocalRotation.z
      value: 0
      objectReference: {fileID: 0}
    - target: {fileID: 5128611335876486149, guid: 9480e25445462b742af5a6554794db96, type: 3}
      propertyPath: m_LocalEulerAnglesHint.x
      value: 0
      objectReference: {fileID: 0}
    - target: {fileID: 5128611335876486149, guid: 9480e25445462b742af5a6554794db96, type: 3}
      propertyPath: m_LocalEulerAnglesHint.y
      value: 0
      objectReference: {fileID: 0}
    - target: {fileID: 5128611335876486149, guid: 9480e25445462b742af5a6554794db96, type: 3}
      propertyPath: m_LocalEulerAnglesHint.z
      value: 0
      objectReference: {fileID: 0}
    - target: {fileID: 7644104386117714589, guid: 9480e25445462b742af5a6554794db96, type: 3}
      propertyPath: m_Mesh
      value: 
      objectReference: {fileID: 3252554165392306359, guid: 974e68c1c2c5750428e10334333516e4, type: 3}
    m_RemovedComponents:
    - {fileID: 0}
  m_SourcePrefab: {fileID: 100100000, guid: 9480e25445462b742af5a6554794db96, type: 3}
